/Users/jfreimuth/.rvm/gems/ruby-2.5.1/gems/bundler-1.16.4/lib/bundler/definition.rb:33:in `build': /var/opt/crm/Gemfile not found (Bundler::GemfileNotFound)
	from /Users/jfreimuth/.rvm/gems/ruby-2.5.1/gems/bundler-1.16.4/lib/bundler.rb:135:in `definition'
	from /Users/jfreimuth/.rvm/gems/ruby-2.5.1/gems/bundler-1.16.4/lib/bundler.rb:101:in `setup'
	from /Users/jfreimuth/.rvm/gems/ruby-2.5.1/gems/bundler-1.16.4/lib/bundler/setup.rb:20:in `<top (required)>'
	from /Users/jfreimuth/.rvm/rubies/ruby-2.5.1/lib/ruby/site_ruby/2.5.0/rubygems/core_ext/kernel_require.rb:59:in `require'
	from /Users/jfreimuth/.rvm/rubies/ruby-2.5.1/lib/ruby/site_ruby/2.5.0/rubygems/core_ext/kernel_require.rb:59:in `require'
